Optimizing Insurance Complaint Classification - Data Cleaning
…
# Split the 'complaint_filed_against_explode' column by ',' into a list in a new column
df <- df %>%
  mutate(complaint_filed_against = strsplit(complaint_filed_against_explode, ","))

# Explode the 'complaint_filed_against' column
df <- df %>%
  unnest(complaint_filed_against)

# Print the modified data frame to verify changes
print(df)

# A tibble: 3,596 × 19
   `___1` complaint_number complaint_filed_against            complaint_filed_by
    <dbl>            <dbl> <chr>                              <chr>             
 1    188              168 "TEXAS MUTUAL INSURANCE COMPANY"   Non-Contracted Pr…
 2    235              217 "TEXAS MUTUAL INSURANCE COMPANY"   Non-Contracted Pr…
 3    250              232 "TEXAS STAR NETWORK/COVENTRY"      Hospital          
 4    303              286 "LIBERTY HEALTH CARE NETWORK"      Physician         
 5    474              446 "TEXAS MUTUAL INSURANCE COMPANY"   Non-Contracted Pr…
 6    477              449 "TEXAS MUTUAL INSURANCE COMPANY"   Non-Contracted Pr…
 7    533              504 "TEXAS MUTUAL INSURANCE COMPANY"   Non-Contracted Pr…
 8    561              531 "TEXAS STAR NETWORK/COVENTRY"      Injured Employee  
 9    708              668 "COVENTRY HEALTH CARE WORKERS COM… Provider          
10    708              668 " INC."                            Provider          
# ℹ 3,586 more rows
# ℹ 15 more variables: reason_complaint_filed <chr>, confirmed_complaint <chr>,
#   how_resolved <chr>, received_date <chr>, closed_date <chr>,
#   complaint_type <chr>, coverage_type <chr>, coverage_level <chr>,
#   others_involved <chr>, respondent_id <dbl>, respondent_role <chr>,
#   respondent_type <chr>, complainant_type <chr>, keywords <chr>,
#   complaint_filed_against_explode <chr>
…
